Applied Statistics: Final Assignment
…
6 Model

6.1 Drop unnecessary columns

df = subset(ask_a_manager_2021, select = -c(job_title, additional_context_on_job_title, additional_context_on_income, state, country) )
df = df[!(df$USD_salary == 0),]

6.2 Get frequency count from each city and select top 30

df_city <- df %>% 
            count(city) %>%
            arrange(desc(n))
head(df_city, 50)

## # A tibble: 50 x 2
##    city              n
##    <chr>         <int>
##  1 Boston          796
##  2 Chicago         764
##  3 New York        745
##  4 Seattle         697
##  5 London          578
##  6 San Francisco   546
##  7 New York City   491
##  8 Los Angeles     484
##  9 Portland        449
## 10 Toronto         397
## # ... with 40 more rows
…
